<TICKER>;<PER>;<DATE>;<TIME>;<OPEN>;<HIGH>;<LOW>;<CLOSE>;<VOL>
AUDRUB;D;20210801;0;53.7372937;;;53.6740502;
AUDRUB;D;20210802;0;53.6766753;;;53.6726509;
AUDRUB;D;20210803;0;53.6687744;;;53.9023843;
AUDRUB;D;20210804;0;53.8990571;;;54.0004740;
AUDRUB;D;20210805;0;53.9954722;;;54.1090131;
AUDRUB;D;20210806;0;54.1054548;;;54.0730548;
AUDRUB;D;20210808;0;53.9408990;;;53.8918585;
AUDRUB;D;20210809;0;53.8873313;;;53.9528914;
AUDRUB;D;20210810;0;53.9518804;;;54.2186795;
AUDRUB;D;20210811;0;54.2288966;;;54.0476220;
AUDRUB;D;20210812;0;54.1226985;;;53.9380329;
AUDRUB;D;20210813;0;53.9404574;;;53.9681647;
AUDRUB;D;20210815;0;54.0453904;;;53.8760726;
AUDRUB;D;20210816;0;53.8777549;;;53.7925147;
AUDRUB;D;20210817;0;53.7226750;;;53.3578718;
AUDRUB;D;20210818;0;53.3414918;;;53.3620860;
AUDRUB;D;20210819;0;53.3617355;;;53.0386433;
AUDRUB;D;20210820;0;53.0412324;;;53.0312832;
AUDRUB;D;20210822;0;53.0080418;;;52.9139457;
AUDRUB;D;20210823;0;52.9135338;;;53.3670726;
AUDRUB;D;20210824;0;53.3423154;;;53.3937185;
AUDRUB;D;20210825;0;53.4164785;;;53.7352645;
AUDRUB;D;20210826;0;53.6991925;;;53.7227109;
AUDRUB;D;20210827;0;53.7439631;;;53.7120179;
AUDRUB;D;20210829;0;53.7100064;;;53.7170353;
AUDRUB;D;20210830;0;53.7321577;;;53.4547803;
AUDRUB;D;20210831;0;53.4527981;;;53.5716277;
AUDRUB;D;20210901;0;53.6383747;;;53.7305596;
AUDRUB;D;20210902;0;53.7826471;;;53.8231959;
AUDRUB;D;20210903;0;54.0454829;;;54.2766790;
AUDRUB;D;20210905;0;54.2609645;;;54.1512128;
AUDRUB;D;20210906;0;54.1494285;;;54.2432024;
AUDRUB;D;20210907;0;54.2432024;;;54.1905184;
AUDRUB;D;20210908;0;54.1944136;;;53.8460101;
AUDRUB;D;20210909;0;53.8092598;;;53.6826754;
AUDRUB;D;20210910;0;53.6998373;;;53.7661125;
AUDRUB;D;20210912;0;53.8121003;;;53.8555562;
AUDRUB;D;20210913;0;53.8059543;;;53.4502654;
AUDRUB;D;20210914;0;53.4987432;;;53.2952044;
AUDRUB;D;20210915;0;53.2759861;;;52.9680978;
AUDRUB;D;20210916;0;53.0149758;;;52.7883799;
AUDRUB;D;20210917;0;52.8552835;;;52.9596232;
AUDRUB;D;20210919;0;52.9120444;;;52.9097023;
AUDRUB;D;20210920;0;52.9627428;;;53.1730210;
AUDRUB;D;20210921;0;53.6048736;;;52.7575571;
AUDRUB;D;20210922;0;52.7774009;;;52.7948312;
AUDRUB;D;20210923;0;52.7895190;;;52.9816753;
AUDRUB;D;20210924;0;52.9904898;;;53.0118168;
AUDRUB;D;20210926;0;52.7816166;;;52.7429142;
AUDRUB;D;20210927;0;52.7287095;;;52.7768993;
AUDRUB;D;20210928;0;52.7963844;;;52.7010557;
AUDRUB;D;20210929;0;52.7020359;;;52.2238037;
AUDRUB;D;20210930;0;52.2236180;;;52.4985322;
AUDRUB;D;20211001;0;52.5854908;;;52.8504813;
AUDRUB;D;20211003;0;52.8630164;;;52.8479553;
AUDRUB;D;20211004;0;52.9401809;;;52.7988351;
AUDRUB;D;20211005;0;52.7596551;;;52.6638672;
AUDRUB;D;20211006;0;52.6582398;;;52.6922980;
AUDRUB;D;20211007;0;52.6836539;;;52.4992878;
AUDRUB;D;20211008;0;52.4975789;;;52.4899738;
AUDRUB;D;20211010;0;52.5155762;;;52.3376959;
AUDRUB;D;20211011;0;52.3406671;;;52.7839124;
AUDRUB;D;20211012;0;52.7812265;;;52.6648518;
AUDRUB;D;20211013;0;52.6645634;;;53.1591379;
AUDRUB;D;20211014;0;53.1586487;;;52.9022312;
AUDRUB;D;20211015;0;52.9029080;;;52.7744899;
AUDRUB;D;20211017;0;52.6810792;;;52.6771628;
AUDRUB;D;20211018;0;52.6774830;;;52.7989885;
AUDRUB;D;20211019;0;52.7565576;;;52.9323830;
AUDRUB;D;20211020;0;52.9450932;;;53.1841284;
AUDRUB;D;20211021;0;53.1859520;;;53.0350814;
AUDRUB;D;20211022;0;53.0190169;;;52.4271471;
AUDRUB;D;20211024;0;52.3804028;;;52.4188736;
AUDRUB;D;20211025;0;52.5008663;;;52.2043590;
AUDRUB;D;20211026;0;52.2362986;;;52.0984775;
AUDRUB;D;20211027;0;52.1358273;;;52.9129887;
AUDRUB;D;20211028;0;52.9007017;;;52.7955076;
AUDRUB;D;20211029;0;52.7927847;;;53.3332900;
AUDRUB;D;20211031;0;52.6013891;;;53.2513402;
AUDRUB;D;20211101;0;53.2646316;;;53.8137352;
AUDRUB;D;20211102;0;53.8145346;;;53.1999486;
AUDRUB;D;20211103;0;53.1931564;;;53.5029389;
AUDRUB;D;20211104;0;53.5200000;;;52.9229605;
AUDRUB;D;20211105;0;52.8619880;;;52.7763200;
AUDRUB;D;20211107;0;52.5863007;;;52.4530739;
AUDRUB;D;20211108;0;52.6665047;;;52.7533338;
AUDRUB;D;20211109;0;52.7676457;;;52.1442886;
AUDRUB;D;20211110;0;52.1442886;;;52.2106204;
AUDRUB;D;20211111;0;52.2100100;;;52.1430937;
AUDRUB;D;20211112;0;52.1457232;;;53.4465739;
AUDRUB;D;20211114;0;53.5331303;;;53.3181233;
AUDRUB;D;20211115;0;53.2401254;;;53.1801321;
AUDRUB;D;20211116;0;53.1784138;;;53.3436554;
AUDRUB;D;20211117;0;53.3442147;;;52.7330178;
AUDRUB;D;20211118;0;52.7313245;;;53.1351261;
AUDRUB;D;20211119;0;53.1461235;;;53.2325927;
AUDRUB;D;20211121;0;53.1611092;;;53.0343262;
AUDRUB;D;20211122;0;53.0645492;;;54.1506523;
AUDRUB;D;20211123;0;54.1609603;;;53.6023277;
AUDRUB;D;20211124;0;53.5999178;;;53.9011720;
AUDRUB;D;20211125;0;53.9487219;;;53.3137928;
AUDRUB;D;20211126;0;53.5015745;;;53.8676484;
AUDRUB;D;20211128;0;53.9376265;;;53.7051445;
