<TICKER>;<PER>;<DATE>;<TIME>;<OPEN>;<HIGH>;<LOW>;<CLOSE>;<VOL>
USDNOK;D;20210801;000000;8.8223200;8.8352700;8.8113700;8.8258800;179221
USDNOK;D;20210802;000000;8.8257500;8.8441600;8.7710300;8.8286000;1333720
USDNOK;D;20210803;000000;8.8286000;8.8457600;8.7519300;8.8148000;1142701
USDNOK;D;20210804;000000;8.8149000;8.8503900;8.7684600;8.8415000;1204891
USDNOK;D;20210805;000000;8.8407700;8.8515200;8.7951300;8.8080300;1290576
USDNOK;D;20210806;000000;8.8089000;8.8924700;8.8024000;8.8875000;1288632
USDNOK;D;20210808;000000;8.8819000;8.9293800;8.8718400;8.9209800;258837
USDNOK;D;20210809;000000;8.9212100;8.9586300;8.8823500;8.9445500;1895362
USDNOK;D;20210810;000000;8.9437000;8.9567100;8.9098000;8.9231000;2059921
USDNOK;D;20210811;000000;8.9245600;8.9443000;8.8405500;8.8493000;2113696
USDNOK;D;20210812;000000;8.8503900;8.8757000;8.8172900;8.8465000;1993837
USDNOK;D;20210813;000000;8.8440100;8.8624800;8.7778700;8.7959000;1727949
USDNOK;D;20210815;000000;8.8141000;8.8141000;8.7749600;8.7967400;232158
USDNOK;D;20210816;000000;8.7988000;8.8517700;8.7934000;8.8225000;1896867
USDNOK;D;20210817;000000;8.8246000;8.9292800;8.8193600;8.9145000;1764039
USDNOK;D;20210818;000000;8.9122000;8.9244200;8.8640000;8.9092000;1946666
USDNOK;D;20210819;000000;8.9100200;9.0470000;8.9041000;9.0391000;2239802
USDNOK;D;20210820;000000;9.0385400;9.1034600;9.0047000;9.0104000;2215464
USDNOK;D;20210822;000000;9.0179000;9.0476400;9.0179000;9.0273000;228690
USDNOK;D;20210823;000000;9.0270300;9.0285900;8.8940500;8.9131000;1924506
USDNOK;D;20210824;000000;8.9150200;8.9206000;8.8065800;8.8310000;1819908
USDNOK;D;20210825;000000;8.8284500;8.8625500;8.7871600;8.8095800;2011864
USDNOK;D;20210826;000000;8.8089500;8.8446800;8.7881600;8.8284000;2571027
USDNOK;D;20210827;000000;8.8288700;8.8750000;8.7008000;8.7100000;1521598
USDNOK;D;20210829;000000;8.7066000;8.7172000;8.6986000;8.7089700;259266
USDNOK;D;20210830;000000;8.7092000;8.7311300;8.6395000;8.6689000;1530188
USDNOK;D;20210831;000000;8.6686000;8.7132600;8.6222300;8.6854000;2032219
USDNOK;D;20210901;000000;8.6879100;8.7123100;8.6613500;8.6909400;1881534
USDNOK;D;20210902;000000;8.6895300;8.7057000;8.6332000;8.6405100;1622304
USDNOK;D;20210903;000000;8.6418500;8.6794000;8.6012000;8.6640000;1443637
USDNOK;D;20210905;000000;8.6552200;8.6776000;8.6428000;8.6669000;117584
USDNOK;D;20210906;000000;8.6669000;8.6883000;8.6456000;8.6519000;2038254
USDNOK;D;20210907;000000;8.6518000;8.6919300;8.6312500;8.6832500;1901042
USDNOK;D;20210908;000000;8.6796000;8.7380800;8.6690700;8.7083000;2628952
USDNOK;D;20210909;000000;8.7068000;8.7285900;8.6474500;8.6756500;1942587
USDNOK;D;20210910;000000;8.6758000;8.6838800;8.6078200;8.6694000;1830972
USDNOK;D;20210912;000000;8.6677000;8.6677000;8.6382000;8.6587900;79187
USDNOK;D;20210913;000000;8.6587900;8.6998900;8.6218100;8.6390000;1895371
USDNOK;D;20210914;000000;8.6399000;8.6553000;8.5696000;8.6440000;1895032
USDNOK;D;20210915;000000;8.6430200;8.6582600;8.5567800;8.5663000;1894303
USDNOK;D;20210916;000000;8.5646000;8.6490300;8.5588000;8.6303700;2136133
USDNOK;D;20210917;000000;8.6296000;8.7095400;8.5791300;8.7002000;1710480
USDNOK;D;20210919;000000;8.6914900;8.7127700;8.6882300;8.6994400;135830
USDNOK;D;20210920;000000;8.7007400;8.7824800;8.6952000;8.7110800;2302564
USDNOK;D;20210921;000000;8.7080000;8.7179000;8.6498500;8.6777000;1956725
USDNOK;D;20210922;000000;8.6774500;8.6884000;8.5850100;8.6596000;2235802
USDNOK;D;20210923;000000;8.6630300;8.6805500;8.5523600;8.5722500;1615465
USDNOK;D;20210924;000000;8.5710000;8.6292000;8.5652000;8.5830000;1080877
USDNOK;D;20210926;000000;8.5877000;8.5955000;8.5610800;8.5650000;92941
USDNOK;D;20210927;000000;8.5650000;8.6118000;8.5457000;8.5996600;1554753
USDNOK;D;20210928;000000;8.5983600;8.6843700;8.5813600;8.6583000;1957151
USDNOK;D;20210929;000000;8.6597000;8.7874700;8.6363900;8.7666000;2047746
USDNOK;D;20210930;000000;8.7677000;8.8309700;8.7089200;8.7485000;2144093
USDNOK;D;20211001;000000;8.7469000;8.7846000;8.6068300;8.6231000;1838985
USDNOK;D;20211003;000000;8.6281000;8.6343000;8.5985000;8.6087000;131799
USDNOK;D;20211004;000000;8.6113800;8.6538400;8.5411500;8.5713000;1778550
USDNOK;D;20211005;000000;8.5713000;8.6075300;8.5111500;8.5288000;1643386
USDNOK;D;20211006;000000;8.5280000;8.6453200;8.5245900;8.5754600;1914571
USDNOK;D;20211007;000000;8.5727000;8.6227700;8.5484000;8.5687000;1851734
USDNOK;D;20211008;000000;8.5687000;8.6042400;8.5085300;8.5403000;1889609
USDNOK;D;20211010;000000;8.5325000;8.5660400;8.5079000;8.5500000;242776
USDNOK;D;20211011;000000;8.5494400;8.5932000;8.5036500;8.5811800;1651790
USDNOK;D;20211012;000000;8.5795500;8.5941000;8.5224400;8.5564800;1872071
USDNOK;D;20211013;000000;8.5564800;8.5642200;8.4802400;8.4863400;2069025
USDNOK;D;20211014;000000;8.4854000;8.4949000;8.4045600;8.4514000;1581184
USDNOK;D;20211015;000000;8.4528300;8.4615900;8.3931600;8.4243000;1720965
USDNOK;D;20211017;000000;8.4162200;8.4345700;8.3940300;8.4269900;168752
USDNOK;D;20211018;000000;8.4271300;8.4854000;8.4046500;8.4139000;1833521
USDNOK;D;20211019;000000;8.4128600;8.4178000;8.3253600;8.3477000;1760945
USDNOK;D;20211020;000000;8.3477000;8.4145000;8.2880700;8.3154000;1892718
USDNOK;D;20211021;000000;8.3153200;8.3697900;8.2740800;8.3635000;1910804
USDNOK;D;20211022;000000;8.3621000;8.3813200;8.3178100;8.3544000;1617407
USDNOK;D;20211024;000000;8.3821000;8.3821000;8.3249000;8.3544000;114254
USDNOK;D;20211025;000000;8.3557200;8.3722300;8.3129500;8.3486100;1612183
USDNOK;D;20211026;000000;8.3447500;8.3773100;8.3156700;8.3596000;1639891
USDNOK;D;20211027;000000;8.3596000;8.4273600;8.3486000;8.4186000;1785173
USDNOK;D;20211028;000000;8.4186000;8.4431000;8.3088500;8.3280000;2084138
USDNOK;D;20211029;000000;8.3292400;8.4685600;8.3207000;8.4424000;1780249
USDNOK;D;20211031;000000;8.4472000;8.4557300;8.4271700;8.4537600;54226
USDNOK;D;20211101;000000;8.4534000;8.4718500;8.3880300;8.4189000;1785146
USDNOK;D;20211102;000000;8.4190000;8.5307600;8.3912000;8.5228200;1656621
USDNOK;D;20211103;000000;8.5228000;8.5521000;8.4801700;8.4883200;1695228
USDNOK;D;20211104;000000;8.4887000;8.5812000;8.4844500;8.5475000;1757703
USDNOK;D;20211105;000000;8.5459000;8.5957000;8.5416000;8.5513000;1683088
USDNOK;D;20211107;000000;8.5586000;8.5634000;8.5301500;8.5460700;103144
USDNOK;D;20211108;000000;8.5432600;8.5691000;8.4837900;8.5008000;1777691
USDNOK;D;20211109;000000;8.5008000;8.5392600;8.4716500;8.5041900;1887721
USDNOK;D;20211110;000000;8.5029000;8.6550200;8.4979000;8.6454000;2065235
USDNOK;D;20211111;000000;8.6471100;8.7075800;8.6284000;8.6812300;1846570
USDNOK;D;20211112;000000;8.6807300;8.7109300;8.6587200;8.6877000;1346521
USDNOK;D;20211114;000000;8.6856000;8.6966400;8.6753000;8.6893000;79202
USDNOK;D;20211115;000000;8.6888000;8.7278700;8.6334500;8.7176000;1400120
USDNOK;D;20211116;000000;8.7178000;8.7510500;8.6794800;8.7468700;1820312
USDNOK;D;20211117;000000;8.7464000;8.7942000;8.7141500;8.7384000;1853095
USDNOK;D;20211118;000000;8.7397900;8.8395000;8.7299500;8.8099800;1593379
USDNOK;D;20211119;000000;8.8101500;8.9379500;8.7900800;8.9016000;1640149
USDNOK;D;20211121;000000;8.9159000;8.9410200;8.9091900;8.9304900;49236
USDNOK;D;20211122;000000;8.9276000;8.9654100;8.8828300;8.9261000;1620513
USDNOK;D;20211123;000000;8.9261000;8.9774800;8.8852000;8.8983400;1744857
USDNOK;D;20211124;000000;8.8963000;8.9845400;8.8771800;8.9579700;1931131
USDNOK;D;20211125;000000;8.9549000;8.9818000;8.9329500;8.9804500;1054075
USDNOK;D;20211126;000000;8.9770000;9.1065500;8.9691300;9.0786000;2081685
USDNOK;D;20211128;000000;9.0856000;9.1052000;9.0320700;9.0580000;1093
